Base path: C:/Program Files/Unity/Editor/Data
Cmd: initializeCompiler
Cmd: compileComputeKernel
  api=4 insize=1954 outsize=349 ok=1
Cmd: compileComputeKernel
  api=4 insize=4741 outsize=9129 ok=1
Cmd: compileComputeKernel
  api=4 insize=1435 outsize=585 ok=1
Cmd: compileComputeKernel
  api=4 insize=8981 outsize=8765 ok=1
