%YAML 1.1
%TAG !u! tag:unity3d.com,2011:
--- !u!29 &1
OcclusionCullingSettings:
  m_ObjectHideFlags: 0
  serializedVersion: 2
  m_OcclusionBakeSettings:
    smallestOccluder: 5
    smallestHole: 0.25
    backfaceThreshold: 100
  m_SceneGUID: 00000000000000000000000000000000
  m_OcclusionCullingData: {fileID: 0}
--- !u!104 &2
RenderSettings:
  m_ObjectHideFlags: 0
  serializedVersion: 8
  m_Fog: 0
  m_FogColor: {r: 0.5, g: 0.5, b: 0.5, a: 1}
  m_FogMode: 3
  m_FogDensity: 0.01
  m_LinearFogStart: 0
  m_LinearFogEnd: 300
  m_AmbientSkyColor: {r: 0.2, g: 0.2, b: 0.2, a: 1}
  m_AmbientEquatorColor: {r: 0.2, g: 0.2, b: 0.2, a: 1}
  m_AmbientGroundColor: {r: 0.2, g: 0.2, b: 0.2, a: 1}
  m_AmbientIntensity: 1
  m_AmbientMode: 3
  m_SubtractiveShadowColor: {r: 0.42, g: 0.478, b: 0.627, a: 1}
  m_SkyboxMaterial: {fileID: 0}
  m_HaloStrength: 0.5
  m_FlareStrength: 1
  m_FlareFadeSpeed: 3
  m_HaloTexture: {fileID: 0}
  m_SpotCookie: {fileID: 10001, guid: 0000000000000000e000000000000000, type: 0}
  m_DefaultReflectionMode: 0
  m_DefaultReflectionResolution: 128
  m_ReflectionBounces: 1
  m_ReflectionIntensity: 1
  m_CustomReflection: {fileID: 0}
  m_Sun: {fileID: 0}
  m_IndirectSpecularColor: {r: 0, g: 0, b: 0, a: 1}
--- !u!157 &4
LightmapSettings:
  m_ObjectHideFlags: 0
  serializedVersion: 11
  m_GIWorkflowMode: 1
  m_GISettings:
    serializedVersion: 2
    m_BounceScale: 1
    m_IndirectOutputScale: 1
    m_AlbedoBoost: 1
    m_TemporalCoherenceThreshold: 1
    m_EnvironmentLightingMode: 0
    m_EnableBakedLightmaps: 1
    m_EnableRealtimeLightmaps: 0
  m_LightmapEditorSettings:
    serializedVersion: 9
    m_Resolution: 1
    m_BakeResolution: 50
    m_TextureWidth: 1024
    m_TextureHeight: 1024
    m_AO: 1
    m_AOMaxDistance: 1
    m_CompAOExponent: 1
    m_CompAOExponentDirect: 0
    m_Padding: 2
    m_LightmapParameters: {fileID: 0}
    m_LightmapsBakeMode: 1
    m_TextureCompression: 0
    m_FinalGather: 0
    m_FinalGatherFiltering: 1
    m_FinalGatherRayCount: 256
    m_ReflectionCompression: 2
    m_MixedBakeMode: 1
    m_BakeBackend: 0
    m_PVRSampling: 1
    m_PVRDirectSampleCount: 32
    m_PVRSampleCount: 500
    m_PVRBounces: 2
    m_PVRFilterTypeDirect: 0
    m_PVRFilterTypeIndirect: 0
    m_PVRFilterTypeAO: 0
    m_PVRFilteringMode: 0
    m_PVRCulling: 1
    m_PVRFilteringGaussRadiusDirect: 1
    m_PVRFilteringGaussRadiusIndirect: 5
    m_PVRFilteringGaussRadiusAO: 2
    m_PVRFilteringAtrousPositionSigmaDirect: 0.5
    m_PVRFilteringAtrousPositionSigmaIndirect: 2
    m_PVRFilteringAtrousPositionSigmaAO: 1
  m_LightingDataAsset: {fileID: 0}
  m_UseShadowmask: 0
--- !u!196 &5
NavMeshSettings:
  serializedVersion: 2
  m_ObjectHideFlags: 0
  m_BuildSettings:
    serializedVersion: 2
    agentTypeID: 0
    agentRadius: 0.5
    agentHeight: 2
    agentSlope: 45
    agentClimb: 0.4
    ledgeDropHeight: 0
    maxJumpAcrossDistance: 0
    minRegionArea: 2
    manualCellSize: 0
    cellSize: 0.16666666
    manualTileSize: 0
    tileSize: 256
    accuratePlacement: 0
    debug:
      m_Flags: 0
  m_NavMeshData: {fileID: 0}
--- !u!1 &105109942
GameObject:
  m_ObjectHideFlags: 0
  m_PrefabParentObject: {fileID: 100016, guid: 811ddaa7a03b0d14ab59966cb39fa65f, type: 3}
  m_PrefabInternal: {fileID: 1921117269}
  serializedVersion: 5
  m_Component:
  - component: {fileID: 105109943}
  - component: {fileID: 105109945}
  - component: {fileID: 105109944}
  m_Layer: 0
  m_Name: Cylinder001
  m_TagString: Untagged
  m_Icon: {fileID: 0}
  m_NavMeshLayer: 0
  m_StaticEditorFlags: 0
  m_IsActive: 1
--- !u!4 &105109943
Transform:
  m_ObjectHideFlags: 0
  m_PrefabParentObject: {fileID: 400016, guid: 811ddaa7a03b0d14ab59966cb39fa65f, type: 3}
  m_PrefabInternal: {fileID: 1921117269}
  m_GameObject: {fileID: 105109942}
  m_LocalRotation: {x: -0.7071068, y: 0, z: -0, w: 0.7071068}
  m_LocalPosition: {x: 1.711949, y: -2.1296673, z: 0.3456076}
  m_LocalScale: {x: 1.6718032, y: 1.6718032, z: 1.2236857}
  m_Children: []
  m_Father: {fileID: 488631967}
  m_RootOrder: 7
  m_LocalEulerAnglesHint: {x: 0, y: 0, z: 0}
--- !u!23 &105109944
MeshRenderer:
  m_ObjectHideFlags: 0
  m_PrefabParentObject: {fileID: 2300014, guid: 811ddaa7a03b0d14ab59966cb39fa65f,
    type: 3}
  m_PrefabInternal: {fileID: 1921117269}
  m_GameObject: {fileID: 105109942}
  m_Enabled: 1
  m_CastShadows: 1
  m_ReceiveShadows: 1
  m_DynamicOccludee: 1
  m_MotionVectors: 1
  m_LightProbeUsage: 1
  m_ReflectionProbeUsage: 1
  m_Materials:
  - {fileID: 2100000, guid: ec283322d940568468f8dde100a766d5, type: 2}
  m_StaticBatchInfo:
    firstSubMesh: 0
    subMeshCount: 0
  m_StaticBatchRoot: {fileID: 0}
  m_ProbeAnchor: {fileID: 0}
  m_LightProbeVolumeOverride: {fileID: 0}
  m_ScaleInLightmap: 1
  m_PreserveUVs: 0
  m_IgnoreNormalsForChartDetection: 0
  m_ImportantGI: 0
  m_StitchLightmapSeams: 0
  m_SelectedEditorRenderState: 3
  m_MinimumChartSize: 4
  m_AutoUVMaxDistance: 0.5
  m_AutoUVMaxAngle: 89
  m_LightmapParameters: {fileID: 0}
  m_SortingLayerID: 0
  m_SortingLayer: 0
  m_SortingOrder: 0
--- !u!33 &105109945
MeshFilter:
  m_ObjectHideFlags: 0
  m_PrefabParentObject: {fileID: 3300014, guid: 811ddaa7a03b0d14ab59966cb39fa65f,
    type: 3}
  m_PrefabInternal: {fileID: 1921117269}
  m_GameObject: {fileID: 105109942}
  m_Mesh: {fileID: 4300000, guid: 811ddaa7a03b0d14ab59966cb39fa65f, type: 3}
--- !u!1 &151708120
GameObject:
  m_ObjectHideFlags: 0
  m_PrefabParentObject: {fileID: 100006, guid: 811ddaa7a03b0d14ab59966cb39fa65f, type: 3}
  m_PrefabInternal: {fileID: 1921117269}
  serializedVersion: 5
  m_Component:
  - component: {fileID: 151708121}
  - component: {fileID: 151708123}
  - component: {fileID: 151708122}
  m_Layer: 0
  m_Name: Box006
  m_TagString: Untagged
  m_Icon: {fileID: 0}
  m_NavMeshLayer: 0
  m_StaticEditorFlags: 0
  m_IsActive: 1
--- !u!4 &151708121
Transform:
  m_ObjectHideFlags: 0
  m_PrefabParentObject: {fileID: 400006, guid: 811ddaa7a03b0d14ab59966cb39fa65f, type: 3}
  m_PrefabInternal: {fileID: 1921117269}
  m_GameObject: {fileID: 151708120}
  m_LocalRotation: {x: 0.5, y: -0.5, z: 0.5, w: 0.5}
  m_LocalPosition: {x: 2.3433204, y: 0.05372818, z: 1.5914254}
  m_LocalScale: {x: -6.6498938, y: -6.6498938, z: -6.6498938}
  m_Children: []
  m_Father: {fileID: 488631967}
  m_RootOrder: 2
  m_LocalEulerAnglesHint: {x: 0, y: 0, z: 0}
--- !u!23 &151708122
MeshRenderer:
  m_ObjectHideFlags: 0
  m_PrefabParentObject: {fileID: 2300004, guid: 811ddaa7a03b0d14ab59966cb39fa65f,
    type: 3}
  m_PrefabInternal: {fileID: 1921117269}
  m_GameObject: {fileID: 151708120}
  m_Enabled: 1
  m_CastShadows: 1
  m_ReceiveShadows: 1
  m_DynamicOccludee: 1
  m_MotionVectors: 1
  m_LightProbeUsage: 1
  m_ReflectionProbeUsage: 1
  m_Materials:
  - {fileID: 2100000, guid: ec283322d940568468f8dde100a766d5, type: 2}
  - {fileID: 2100000, guid: 956e72e0a79978f4ca0c450a17f6b47e, type: 2}
  m_StaticBatchInfo:
    firstSubMesh: 0
    subMeshCount: 0
  m_StaticBatchRoot: {fileID: 0}
  m_ProbeAnchor: {fileID: 0}
  m_LightProbeVolumeOverride: {fileID: 0}
  m_ScaleInLightmap: 1
  m_PreserveUVs: 0
  m_IgnoreNormalsForChartDetection: 0
  m_ImportantGI: 0
  m_StitchLightmapSeams: 0
  m_SelectedEditorRenderState: 3
  m_MinimumChartSize: 4
  m_AutoUVMaxDistance: 0.5
  m_AutoUVMaxAngle: 89
  m_LightmapParameters: {fileID: 0}
  m_SortingLayerID: 0
  m_SortingLayer: 0
  m_SortingOrder: 0
--- !u!33 &151708123
MeshFilter:
  m_ObjectHideFlags: 0
  m_PrefabParentObject: {fileID: 3300004, guid: 811ddaa7a03b0d14ab59966cb39fa65f,
    type: 3}
  m_PrefabInternal: {fileID: 1921117269}
  m_GameObject: {fileID: 151708120}
  m_Mesh: {fileID: 4300006, guid: 811ddaa7a03b0d14ab59966cb39fa65f, type: 3}
--- !u!1 &368359427
GameObject:
  m_ObjectHideFlags: 0
  m_PrefabParentObject: {fileID: 100002, guid: 811ddaa7a03b0d14ab59966cb39fa65f, type: 3}
  m_PrefabInternal: {fileID: 1921117269}
  serializedVersion: 5
  m_Component:
  - component: {fileID: 368359428}
  - component: {fileID: 368359430}
  - component: {fileID: 368359429}
  m_Layer: 0
  m_Name: Box001
  m_TagString: Untagged
  m_Icon: {fileID: 0}
  m_NavMeshLayer: 0
  m_StaticEditorFlags: 0
  m_IsActive: 1
--- !u!4 &368359428
Transform:
  m_ObjectHideFlags: 0
  m_PrefabParentObject: {fileID: 400002, guid: 811ddaa7a03b0d14ab59966cb39fa65f, type: 3}
  m_PrefabInternal: {fileID: 1921117269}
  m_GameObject: {fileID: 368359427}
  m_LocalRotation: {x: -0.7071068, y: 0.000000025219219, z: -0.000000016927636, w: 0.7071068}
  m_LocalPosition: {x: 1.7218969, y: 0, z: 1.5729235}
  m_LocalScale: {x: 0.99999994, y: 0.73173887, z: 0.99999994}
  m_Children: []
  m_Father: {fileID: 488631967}
  m_RootOrder: 0
  m_LocalEulerAnglesHint: {x: 0, y: 0, z: 0}
--- !u!23 &368359429
MeshRenderer:
  m_ObjectHideFlags: 0
  m_PrefabParentObject: {fileID: 2300000, guid: 811ddaa7a03b0d14ab59966cb39fa65f,
    type: 3}
  m_PrefabInternal: {fileID: 1921117269}
  m_GameObject: {fileID: 368359427}
  m_Enabled: 1
  m_CastShadows: 1
  m_ReceiveShadows: 1
  m_DynamicOccludee: 1
  m_MotionVectors: 1
  m_LightProbeUsage: 1
  m_ReflectionProbeUsage: 1
  m_Materials:
  - {fileID: 2100000, guid: ec283322d940568468f8dde100a766d5, type: 2}
  m_StaticBatchInfo:
    firstSubMesh: 0
    subMeshCount: 0
  m_StaticBatchRoot: {fileID: 0}
  m_ProbeAnchor: {fileID: 0}
  m_LightProbeVolumeOverride: {fileID: 0}
  m_ScaleInLightmap: 1
  m_PreserveUVs: 0
  m_IgnoreNormalsForChartDetection: 0
  m_ImportantGI: 0
  m_StitchLightmapSeams: 0
  m_SelectedEditorRenderState: 3
  m_MinimumChartSize: 4
  m_AutoUVMaxDistance: 0.5
  m_AutoUVMaxAngle: 89
  m_LightmapParameters: {fileID: 0}
  m_SortingLayerID: 0
  m_SortingLayer: 0
  m_SortingOrder: 0
--- !u!33 &368359430
MeshFilter:
  m_ObjectHideFlags: 0
  m_PrefabParentObject: {fileID: 3300000, guid: 811ddaa7a03b0d14ab59966cb39fa65f,
    type: 3}
  m_PrefabInternal: {fileID: 1921117269}
  m_GameObject: {fileID: 368359427}
  m_Mesh: {fileID: 4300002, guid: 811ddaa7a03b0d14ab59966cb39fa65f, type: 3}
--- !u!1 &488631966
GameObject:
  m_ObjectHideFlags: 0
  m_PrefabParentObject: {fileID: 100000, guid: 811ddaa7a03b0d14ab59966cb39fa65f, type: 3}
  m_PrefabInternal: {fileID: 1921117269}
  serializedVersion: 5
  m_Component:
  - component: {fileID: 488631967}
  - component: {fileID: 488631968}
  m_Layer: 0
  m_Name: billboard
  m_TagString: Untagged
  m_Icon: {fileID: 0}
  m_NavMeshLayer: 0
  m_StaticEditorFlags: 0
  m_IsActive: 1
--- !u!4 &488631967
Transform:
  m_ObjectHideFlags: 0
  m_PrefabParentObject: {fileID: 400000, guid: 811ddaa7a03b0d14ab59966cb39fa65f, type: 3}
  m_PrefabInternal: {fileID: 1921117269}
  m_GameObject: {fileID: 488631966}
  m_LocalRotation: {x: 0, y: 0.5, z: 0, w: 0.8660254}
  m_LocalPosition: {x: -3.0126162, y: 0.0771265, z: 6.096036}
  m_LocalScale: {x: 1, y: 1, z: 1}
  m_Children:
  - {fileID: 368359428}
  - {fileID: 1261957211}
  - {fileID: 151708121}
  - {fileID: 1795392890}
  - {fileID: 1527188667}
  - {fileID: 793150113}
  - {fileID: 1906090674}
  - {fileID: 105109943}
  - {fileID: 1707239193}
  - {fileID: 2123016835}
  m_Father: {fileID: 0}
  m_RootOrder: 0
  m_LocalEulerAnglesHint: {x: 0, y: 0, z: 0}
--- !u!111 &488631968
Animation:
  m_ObjectHideFlags: 0
  m_PrefabParentObject: {fileID: 11100000, guid: 811ddaa7a03b0d14ab59966cb39fa65f,
    type: 3}
  m_PrefabInternal: {fileID: 1921117269}
  m_GameObject: {fileID: 488631966}
  m_Enabled: 1
  serializedVersion: 3
  m_Animation: {fileID: 0}
  m_Animations: []
  m_WrapMode: 0
  m_PlayAutomatically: 1
  m_AnimatePhysics: 0
  m_CullingType: 0
--- !u!1 &793150112
GameObject:
  m_ObjectHideFlags: 0
  m_PrefabParentObject: {fileID: 100012, guid: 811ddaa7a03b0d14ab59966cb39fa65f, type: 3}
  m_PrefabInternal: {fileID: 1921117269}
  serializedVersion: 5
  m_Component:
  - component: {fileID: 793150113}
  - component: {fileID: 793150115}
  - component: {fileID: 793150114}
  m_Layer: 0
  m_Name: Box009
  m_TagString: Untagged
  m_Icon: {fileID: 0}
  m_NavMeshLayer: 0
  m_StaticEditorFlags: 0
  m_IsActive: 1
--- !u!4 &793150113
Transform:
  m_ObjectHideFlags: 0
  m_PrefabParentObject: {fileID: 400012, guid: 811ddaa7a03b0d14ab59966cb39fa65f, type: 3}
  m_PrefabInternal: {fileID: 1921117269}
  m_GameObject: {fileID: 793150112}
  m_LocalRotation: {x: -0.5, y: 0.5, z: 0.5, w: 0.5}
  m_LocalPosition: {x: 1.0909203, y: 0.05372818, z: 3.1366823}
  m_LocalScale: {x: 6.6498938, y: 6.6498938, z: 6.6498938}
  m_Children: []
  m_Father: {fileID: 488631967}
  m_RootOrder: 5
  m_LocalEulerAnglesHint: {x: 0, y: 0, z: 0}
--- !u!23 &793150114
MeshRenderer:
  m_ObjectHideFlags: 0
  m_PrefabParentObject: {fileID: 2300010, guid: 811ddaa7a03b0d14ab59966cb39fa65f,
    type: 3}
  m_PrefabInternal: {fileID: 1921117269}
  m_GameObject: {fileID: 793150112}
  m_Enabled: 1
  m_CastShadows: 1
  m_ReceiveShadows: 1
  m_DynamicOccludee: 1
  m_MotionVectors: 1
  m_LightProbeUsage: 1
  m_ReflectionProbeUsage: 1
  m_Materials:
  - {fileID: 2100000, guid: ec283322d940568468f8dde100a766d5, type: 2}
  - {fileID: 2100000, guid: 956e72e0a79978f4ca0c450a17f6b47e, type: 2}
  m_StaticBatchInfo:
    firstSubMesh: 0
    subMeshCount: 0
  m_StaticBatchRoot: {fileID: 0}
  m_ProbeAnchor: {fileID: 0}
  m_LightProbeVolumeOverride: {fileID: 0}
  m_ScaleInLightmap: 1
  m_PreserveUVs: 0
  m_IgnoreNormalsForChartDetection: 0
  m_ImportantGI: 0
  m_StitchLightmapSeams: 0
  m_SelectedEditorRenderState: 3
  m_MinimumChartSize: 4
  m_AutoUVMaxDistance: 0.5
  m_AutoUVMaxAngle: 89
  m_LightmapParameters: {fileID: 0}
  m_SortingLayerID: 0
  m_SortingLayer: 0
  m_SortingOrder: 0
--- !u!33 &793150115
MeshFilter:
  m_ObjectHideFlags: 0
  m_PrefabParentObject: {fileID: 3300010, guid: 811ddaa7a03b0d14ab59966cb39fa65f,
    type: 3}
  m_PrefabInternal: {fileID: 1921117269}
  m_GameObject: {fileID: 793150112}
  m_Mesh: {fileID: 4300012, guid: 811ddaa7a03b0d14ab59966cb39fa65f, type: 3}
--- !u!1 &1261957210
GameObject:
  m_ObjectHideFlags: 0
  m_PrefabParentObject: {fileID: 100004, guid: 811ddaa7a03b0d14ab59966cb39fa65f, type: 3}
  m_PrefabInternal: {fileID: 1921117269}
  serializedVersion: 5
  m_Component:
  - component: {fileID: 1261957211}
  - component: {fileID: 1261957213}
  - component: {fileID: 1261957212}
  m_Layer: 0
  m_Name: Box005
  m_TagString: Untagged
  m_Icon: {fileID: 0}
  m_NavMeshLayer: 0
  m_StaticEditorFlags: 0
  m_IsActive: 1
--- !u!4 &1261957211
Transform:
  m_ObjectHideFlags: 0
  m_PrefabParentObject: {fileID: 400004, guid: 811ddaa7a03b0d14ab59966cb39fa65f, type: 3}
  m_PrefabInternal: {fileID: 1921117269}
  m_GameObject: {fileID: 1261957210}
  m_LocalRotation: {x: 0.5, y: -0.5, z: 0.5, w: 0.5}
  m_LocalPosition: {x: 2.3433204, y: 0.05372818, z: 3.0276346e-16}
  m_LocalScale: {x: -6.6498938, y: -6.6498938, z: -6.6498938}
  m_Children: []
  m_Father: {fileID: 488631967}
  m_RootOrder: 1
  m_LocalEulerAnglesHint: {x: 0, y: 0, z: 0}
--- !u!23 &1261957212
MeshRenderer:
  m_ObjectHideFlags: 0
  m_PrefabParentObject: {fileID: 2300002, guid: 811ddaa7a03b0d14ab59966cb39fa65f,
    type: 3}
  m_PrefabInternal: {fileID: 1921117269}
  m_GameObject: {fileID: 1261957210}
  m_Enabled: 1
  m_CastShadows: 1
  m_ReceiveShadows: 1
  m_DynamicOccludee: 1
  m_MotionVectors: 1
  m_LightProbeUsage: 1
  m_ReflectionProbeUsage: 1
  m_Materials:
  - {fileID: 2100000, guid: ec283322d940568468f8dde100a766d5, type: 2}
  - {fileID: 2100000, guid: 956e72e0a79978f4ca0c450a17f6b47e, type: 2}
  m_StaticBatchInfo:
    firstSubMesh: 0
    subMeshCount: 0
  m_StaticBatchRoot: {fileID: 0}
  m_ProbeAnchor: {fileID: 0}
  m_LightProbeVolumeOverride: {fileID: 0}
  m_ScaleInLightmap: 1
  m_PreserveUVs: 0
  m_IgnoreNormalsForChartDetection: 0
  m_ImportantGI: 0
  m_StitchLightmapSeams: 0
  m_SelectedEditorRenderState: 3
  m_MinimumChartSize: 4
  m_AutoUVMaxDistance: 0.5
  m_AutoUVMaxAngle: 89
  m_LightmapParameters: {fileID: 0}
  m_SortingLayerID: 0
  m_SortingLayer: 0
  m_SortingOrder: 0
--- !u!33 &1261957213
MeshFilter:
  m_ObjectHideFlags: 0
  m_PrefabParentObject: {fileID: 3300002, guid: 811ddaa7a03b0d14ab59966cb39fa65f,
    type: 3}
  m_PrefabInternal: {fileID: 1921117269}
  m_GameObject: {fileID: 1261957210}
  m_Mesh: {fileID: 4300004, guid: 811ddaa7a03b0d14ab59966cb39fa65f, type: 3}
--- !u!1 &1527188666
GameObject:
  m_ObjectHideFlags: 0
  m_PrefabParentObject: {fileID: 100010, guid: 811ddaa7a03b0d14ab59966cb39fa65f, type: 3}
  m_PrefabInternal: {fileID: 1921117269}
  serializedVersion: 5
  m_Component:
  - component: {fileID: 1527188667}
  - component: {fileID: 1527188669}
  - component: {fileID: 1527188668}
  m_Layer: 0
  m_Name: Box008
  m_TagString: Untagged
  m_Icon: {fileID: 0}
  m_NavMeshLayer: 0
  m_StaticEditorFlags: 0
  m_IsActive: 1
--- !u!4 &1527188667
Transform:
  m_ObjectHideFlags: 0
  m_PrefabParentObject: {fileID: 400010, guid: 811ddaa7a03b0d14ab59966cb39fa65f, type: 3}
  m_PrefabInternal: {fileID: 1921117269}
  m_GameObject: {fileID: 1527188666}
  m_LocalRotation: {x: -0.5, y: 0.5, z: 0.5, w: 0.5}
  m_LocalPosition: {x: 1.0909203, y: 0.05372818, z: 1.5914254}
  m_LocalScale: {x: 6.6498938, y: 6.6498938, z: 6.6498938}
  m_Children: []
  m_Father: {fileID: 488631967}
  m_RootOrder: 4
  m_LocalEulerAnglesHint: {x: 0, y: 0, z: 0}
--- !u!23 &1527188668
MeshRenderer:
  m_ObjectHideFlags: 0
  m_PrefabParentObject: {fileID: 2300008, guid: 811ddaa7a03b0d14ab59966cb39fa65f,
    type: 3}
  m_PrefabInternal: {fileID: 1921117269}
  m_GameObject: {fileID: 1527188666}
  m_Enabled: 1
  m_CastShadows: 1
  m_ReceiveShadows: 1
  m_DynamicOccludee: 1
  m_MotionVectors: 1
  m_LightProbeUsage: 1
  m_ReflectionProbeUsage: 1
  m_Materials:
  - {fileID: 2100000, guid: ec283322d940568468f8dde100a766d5, type: 2}
  - {fileID: 2100000, guid: 956e72e0a79978f4ca0c450a17f6b47e, type: 2}
  m_StaticBatchInfo:
    firstSubMesh: 0
    subMeshCount: 0
  m_StaticBatchRoot: {fileID: 0}
  m_ProbeAnchor: {fileID: 0}
  m_LightProbeVolumeOverride: {fileID: 0}
  m_ScaleInLightmap: 1
  m_PreserveUVs: 0
  m_IgnoreNormalsForChartDetection: 0
  m_ImportantGI: 0
  m_StitchLightmapSeams: 0
  m_SelectedEditorRenderState: 3
  m_MinimumChartSize: 4
  m_AutoUVMaxDistance: 0.5
  m_AutoUVMaxAngle: 89
  m_LightmapParameters: {fileID: 0}
  m_SortingLayerID: 0
  m_SortingLayer: 0
  m_SortingOrder: 0
--- !u!33 &1527188669
MeshFilter:
  m_ObjectHideFlags: 0
  m_PrefabParentObject: {fileID: 3300008, guid: 811ddaa7a03b0d14ab59966cb39fa65f,
    type: 3}
  m_PrefabInternal: {fileID: 1921117269}
  m_GameObject: {fileID: 1527188666}
  m_Mesh: {fileID: 4300010, guid: 811ddaa7a03b0d14ab59966cb39fa65f, type: 3}
--- !u!1 &1545619360
GameObject:
  m_ObjectHideFlags: 0
  m_PrefabParentObject: {fileID: 0}
  m_PrefabInternal: {fileID: 0}
  serializedVersion: 5
  m_Component:
  - component: {fileID: 1545619361}
  - component: {fileID: 1545619363}
  - component: {fileID: 1545619364}
  - component: {fileID: 1545619362}
  m_Layer: 0
  m_Name: Plane
  m_TagString: Untagged
  m_Icon: {fileID: 0}
  m_NavMeshLayer: 0
  m_StaticEditorFlags: 0
  m_IsActive: 1
--- !u!4 &1545619361
Transform:
  m_ObjectHideFlags: 0
  m_PrefabParentObject: {fileID: 0}
  m_PrefabInternal: {fileID: 0}
  m_GameObject: {fileID: 1545619360}
  m_LocalRotation: {x: 0, y: 0, z: 0, w: 1}
  m_LocalPosition: {x: -1.0307465, y: -5.3376913, z: 2.628921}
  m_LocalScale: {x: 20.686022, y: 15.325219, z: 15.325219}
  m_Children: []
  m_Father: {fileID: 0}
  m_RootOrder: 3
  m_LocalEulerAnglesHint: {x: 0, y: 0, z: 0}
--- !u!23 &1545619362
MeshRenderer:
  m_ObjectHideFlags: 0
  m_PrefabParentObject: {fileID: 0}
  m_PrefabInternal: {fileID: 0}
  m_GameObject: {fileID: 1545619360}
  m_Enabled: 1
  m_CastShadows: 1
  m_ReceiveShadows: 1
  m_DynamicOccludee: 1
  m_MotionVectors: 1
  m_LightProbeUsage: 0
  m_ReflectionProbeUsage: 1
  m_Materials:
  - {fileID: 10302, guid: 0000000000000000f000000000000000, type: 0}
  m_StaticBatchInfo:
    firstSubMesh: 0
    subMeshCount: 0
  m_StaticBatchRoot: {fileID: 0}
  m_ProbeAnchor: {fileID: 0}
  m_LightProbeVolumeOverride: {fileID: 0}
  m_ScaleInLightmap: 1
  m_PreserveUVs: 0
  m_IgnoreNormalsForChartDetection: 0
  m_ImportantGI: 0
  m_StitchLightmapSeams: 0
  m_SelectedEditorRenderState: 3
  m_MinimumChartSize: 4
  m_AutoUVMaxDistance: 0.5
  m_AutoUVMaxAngle: 89
  m_LightmapParameters: {fileID: 0}
  m_SortingLayerID: 0
  m_SortingLayer: 0
  m_SortingOrder: 0
--- !u!33 &1545619363
MeshFilter:
  m_ObjectHideFlags: 0
  m_PrefabParentObject: {fileID: 0}
  m_PrefabInternal: {fileID: 0}
  m_GameObject: {fileID: 1545619360}
  m_Mesh: {fileID: 10209, guid: 0000000000000000e000000000000000, type: 0}
--- !u!64 &1545619364
MeshCollider:
  m_ObjectHideFlags: 0
  m_PrefabParentObject: {fileID: 0}
  m_PrefabInternal: {fileID: 0}
  m_GameObject: {fileID: 1545619360}
  m_Material: {fileID: 0}
  m_IsTrigger: 0
  m_Enabled: 1
  serializedVersion: 2
  m_Convex: 0
  m_InflateMesh: 0
  m_SkinWidth: 0.01
  m_Mesh: {fileID: 10209, guid: 0000000000000000e000000000000000, type: 0}
--- !u!1 &1707239192
GameObject:
  m_ObjectHideFlags: 0
  m_PrefabParentObject: {fileID: 100018, guid: 811ddaa7a03b0d14ab59966cb39fa65f, type: 3}
  m_PrefabInternal: {fileID: 1921117269}
  serializedVersion: 5
  m_Component:
  - component: {fileID: 1707239193}
  - component: {fileID: 1707239195}
  - component: {fileID: 1707239194}
  m_Layer: 0
  m_Name: Object001
  m_TagString: Untagged
  m_Icon: {fileID: 0}
  m_NavMeshLayer: 0
  m_StaticEditorFlags: 0
  m_IsActive: 1
--- !u!4 &1707239193
Transform:
  m_ObjectHideFlags: 0
  m_PrefabParentObject: {fileID: 400018, guid: 811ddaa7a03b0d14ab59966cb39fa65f, type: 3}
  m_PrefabInternal: {fileID: 1921117269}
  m_GameObject: {fileID: 1707239192}
  m_LocalRotation: {x: -0.7071068, y: -9.306839e-16, z: -9.306839e-16, w: 0.7071068}
  m_LocalPosition: {x: 2.0860987, y: 1.2551882, z: 1.5729235}
  m_LocalScale: {x: 0.99999994, y: 0.73173887, z: 0.99999994}
  m_Children: []
  m_Father: {fileID: 488631967}
  m_RootOrder: 8
  m_LocalEulerAnglesHint: {x: 0, y: 0, z: 0}
--- !u!23 &1707239194
MeshRenderer:
  m_ObjectHideFlags: 0
  m_PrefabParentObject: {fileID: 2300016, guid: 811ddaa7a03b0d14ab59966cb39fa65f,
    type: 3}
  m_PrefabInternal: {fileID: 1921117269}
  m_GameObject: {fileID: 1707239192}
  m_Enabled: 1
  m_CastShadows: 1
  m_ReceiveShadows: 1
  m_DynamicOccludee: 1
  m_MotionVectors: 1
  m_LightProbeUsage: 1
  m_ReflectionProbeUsage: 1
  m_Materials:
  - {fileID: 2100000, guid: 7434f755916f5c244bee46820bd8a02a, type: 2}
  m_StaticBatchInfo:
    firstSubMesh: 0
    subMeshCount: 0
  m_StaticBatchRoot: {fileID: 0}
  m_ProbeAnchor: {fileID: 0}
  m_LightProbeVolumeOverride: {fileID: 0}
  m_ScaleInLightmap: 1
  m_PreserveUVs: 0
  m_IgnoreNormalsForChartDetection: 0
  m_ImportantGI: 0
  m_StitchLightmapSeams: 0
  m_SelectedEditorRenderState: 3
  m_MinimumChartSize: 4
  m_AutoUVMaxDistance: 0.5
  m_AutoUVMaxAngle: 89
  m_LightmapParameters: {fileID: 0}
  m_SortingLayerID: 0
  m_SortingLayer: 0
  m_SortingOrder: 0
--- !u!33 &1707239195
MeshFilter:
  m_ObjectHideFlags: 0
  m_PrefabParentObject: {fileID: 3300016, guid: 811ddaa7a03b0d14ab59966cb39fa65f,
    type: 3}
  m_PrefabInternal: {fileID: 1921117269}
  m_GameObject: {fileID: 1707239192}
  m_Mesh: {fileID: 4300016, guid: 811ddaa7a03b0d14ab59966cb39fa65f, type: 3}
--- !u!1 &1779898056
GameObject:
  m_ObjectHideFlags: 0
  m_PrefabParentObject: {fileID: 0}
  m_PrefabInternal: {fileID: 0}
  serializedVersion: 5
  m_Component:
  - component: {fileID: 1779898057}
  - component: {fileID: 1779898058}
  - component: {fileID: 1779898060}
  - component: {fileID: 1779898061}
  - component: {fileID: 1779898059}
  m_Layer: 0
  m_Name: Main Camera
  m_TagString: MainCamera
  m_Icon: {fileID: 0}
  m_NavMeshLayer: 0
  m_StaticEditorFlags: 0
  m_IsActive: 1
--- !u!4 &1779898057
Transform:
  m_ObjectHideFlags: 0
  m_PrefabParentObject: {fileID: 0}
  m_PrefabInternal: {fileID: 0}
  m_GameObject: {fileID: 1779898056}
  m_LocalRotation: {x: 0, y: 0, z: 0, w: 1}
  m_LocalPosition: {x: 0, y: 1, z: -10}
  m_LocalScale: {x: 1, y: 1, z: 1}
  m_Children: []
  m_Father: {fileID: 0}
  m_RootOrder: 2
  m_LocalEulerAnglesHint: {x: 0, y: 0, z: 0}
--- !u!20 &1779898058
Camera:
  m_ObjectHideFlags: 0
  m_PrefabParentObject: {fileID: 0}
  m_PrefabInternal: {fileID: 0}
  m_GameObject: {fileID: 1779898056}
  m_Enabled: 1
  serializedVersion: 2
  m_ClearFlags: 1
  m_BackGroundColor: {r: 0.78431374, g: 0.78431374, b: 0.78431374, a: 0.019607844}
  m_NormalizedViewPortRect:
    serializedVersion: 2
    x: 0
    y: 0
    width: 1
    height: 1
  near clip plane: 0.3
  far clip plane: 1000
  field of view: 60
  orthographic: 0
  orthographic size: 100
  m_Depth: -1
  m_CullingMask:
    serializedVersion: 2
    m_Bits: 4294967295
  m_RenderingPath: -1
  m_TargetTexture: {fileID: 0}
  m_TargetDisplay: 0
  m_TargetEye: 3
  m_HDR: 0
  m_AllowMSAA: 1
  m_ForceIntoRT: 0
  m_OcclusionCulling: 1
  m_StereoConvergence: 10
  m_StereoSeparation: 0.022
--- !u!81 &1779898059
AudioListener:
  m_ObjectHideFlags: 0
  m_PrefabParentObject: {fileID: 0}
  m_PrefabInternal: {fileID: 0}
  m_GameObject: {fileID: 1779898056}
  m_Enabled: 1
--- !u!92 &1779898060
Behaviour:
  m_ObjectHideFlags: 0
  m_PrefabParentObject: {fileID: 0}
  m_PrefabInternal: {fileID: 0}
  m_GameObject: {fileID: 1779898056}
  m_Enabled: 1
--- !u!124 &1779898061
Behaviour:
  m_ObjectHideFlags: 0
  m_PrefabParentObject: {fileID: 0}
  m_PrefabInternal: {fileID: 0}
  m_GameObject: {fileID: 1779898056}
  m_Enabled: 1
--- !u!1 &1795392889
GameObject:
  m_ObjectHideFlags: 0
  m_PrefabParentObject: {fileID: 100008, guid: 811ddaa7a03b0d14ab59966cb39fa65f, type: 3}
  m_PrefabInternal: {fileID: 1921117269}
  serializedVersion: 5
  m_Component:
  - component: {fileID: 1795392890}
  - component: {fileID: 1795392892}
  - component: {fileID: 1795392891}
  m_Layer: 0
  m_Name: Box007
  m_TagString: Untagged
  m_Icon: {fileID: 0}
  m_NavMeshLayer: 0
  m_StaticEditorFlags: 0
  m_IsActive: 1
--- !u!4 &1795392890
Transform:
  m_ObjectHideFlags: 0
  m_PrefabParentObject: {fileID: 400008, guid: 811ddaa7a03b0d14ab59966cb39fa65f, type: 3}
  m_PrefabInternal: {fileID: 1921117269}
  m_GameObject: {fileID: 1795392889}
  m_LocalRotation: {x: 0.5, y: -0.5, z: 0.5, w: 0.5}
  m_LocalPosition: {x: 2.3433204, y: 0.05372818, z: 3.1366823}
  m_LocalScale: {x: -6.6498938, y: -6.6498938, z: -6.6498938}
  m_Children: []
  m_Father: {fileID: 488631967}
  m_RootOrder: 3
  m_LocalEulerAnglesHint: {x: 0, y: 0, z: 0}
--- !u!23 &1795392891
MeshRenderer:
  m_ObjectHideFlags: 0
  m_PrefabParentObject: {fileID: 2300006, guid: 811ddaa7a03b0d14ab59966cb39fa65f,
    type: 3}
  m_PrefabInternal: {fileID: 1921117269}
  m_GameObject: {fileID: 1795392889}
  m_Enabled: 1
  m_CastShadows: 1
  m_ReceiveShadows: 1
  m_DynamicOccludee: 1
  m_MotionVectors: 1
  m_LightProbeUsage: 1
  m_ReflectionProbeUsage: 1
  m_Materials:
  - {fileID: 2100000, guid: ec283322d940568468f8dde100a766d5, type: 2}
  - {fileID: 2100000, guid: 956e72e0a79978f4ca0c450a17f6b47e, type: 2}
  m_StaticBatchInfo:
    firstSubMesh: 0
    subMeshCount: 0
  m_StaticBatchRoot: {fileID: 0}
  m_ProbeAnchor: {fileID: 0}
  m_LightProbeVolumeOverride: {fileID: 0}
  m_ScaleInLightmap: 1
  m_PreserveUVs: 0
  m_IgnoreNormalsForChartDetection: 0
  m_ImportantGI: 0
  m_StitchLightmapSeams: 0
  m_SelectedEditorRenderState: 3
  m_MinimumChartSize: 4
  m_AutoUVMaxDistance: 0.5
  m_AutoUVMaxAngle: 89
  m_LightmapParameters: {fileID: 0}
  m_SortingLayerID: 0
  m_SortingLayer: 0
  m_SortingOrder: 0
--- !u!33 &1795392892
MeshFilter:
  m_ObjectHideFlags: 0
  m_PrefabParentObject: {fileID: 3300006, guid: 811ddaa7a03b0d14ab59966cb39fa65f,
    type: 3}
  m_PrefabInternal: {fileID: 1921117269}
  m_GameObject: {fileID: 1795392889}
  m_Mesh: {fileID: 4300008, guid: 811ddaa7a03b0d14ab59966cb39fa65f, type: 3}
--- !u!1 &1906090673
GameObject:
  m_ObjectHideFlags: 0
  m_PrefabParentObject: {fileID: 100014, guid: 811ddaa7a03b0d14ab59966cb39fa65f, type: 3}
  m_PrefabInternal: {fileID: 1921117269}
  serializedVersion: 5
  m_Component:
  - component: {fileID: 1906090674}
  - component: {fileID: 1906090676}
  - component: {fileID: 1906090675}
  m_Layer: 0
  m_Name: Box010
  m_TagString: Untagged
  m_Icon: {fileID: 0}
  m_NavMeshLayer: 0
  m_StaticEditorFlags: 0
  m_IsActive: 1
--- !u!4 &1906090674
Transform:
  m_ObjectHideFlags: 0
  m_PrefabParentObject: {fileID: 400014, guid: 811ddaa7a03b0d14ab59966cb39fa65f, type: 3}
  m_PrefabInternal: {fileID: 1921117269}
  m_GameObject: {fileID: 1906090673}
  m_LocalRotation: {x: -0.5, y: 0.5, z: 0.5, w: 0.5}
  m_LocalPosition: {x: 1.0909203, y: 0.05372818, z: 3.0276346e-16}
  m_LocalScale: {x: 6.6498938, y: 6.6498938, z: 6.6498938}
  m_Children: []
  m_Father: {fileID: 488631967}
  m_RootOrder: 6
  m_LocalEulerAnglesHint: {x: 0, y: 0, z: 0}
--- !u!23 &1906090675
MeshRenderer:
  m_ObjectHideFlags: 0
  m_PrefabParentObject: {fileID: 2300012, guid: 811ddaa7a03b0d14ab59966cb39fa65f,
    type: 3}
  m_PrefabInternal: {fileID: 1921117269}
  m_GameObject: {fileID: 1906090673}
  m_Enabled: 1
  m_CastShadows: 1
  m_ReceiveShadows: 1
  m_DynamicOccludee: 1
  m_MotionVectors: 1
  m_LightProbeUsage: 1
  m_ReflectionProbeUsage: 1
  m_Materials:
  - {fileID: 2100000, guid: ec283322d940568468f8dde100a766d5, type: 2}
  - {fileID: 2100000, guid: 956e72e0a79978f4ca0c450a17f6b47e, type: 2}
  m_StaticBatchInfo:
    firstSubMesh: 0
    subMeshCount: 0
  m_StaticBatchRoot: {fileID: 0}
  m_ProbeAnchor: {fileID: 0}
  m_LightProbeVolumeOverride: {fileID: 0}
  m_ScaleInLightmap: 1
  m_PreserveUVs: 0
  m_IgnoreNormalsForChartDetection: 0
  m_ImportantGI: 0
  m_StitchLightmapSeams: 0
  m_SelectedEditorRenderState: 3
  m_MinimumChartSize: 4
  m_AutoUVMaxDistance: 0.5
  m_AutoUVMaxAngle: 89
  m_LightmapParameters: {fileID: 0}
  m_SortingLayerID: 0
  m_SortingLayer: 0
  m_SortingOrder: 0
--- !u!33 &1906090676
MeshFilter:
  m_ObjectHideFlags: 0
  m_PrefabParentObject: {fileID: 3300012, guid: 811ddaa7a03b0d14ab59966cb39fa65f,
    type: 3}
  m_PrefabInternal: {fileID: 1921117269}
  m_GameObject: {fileID: 1906090673}
  m_Mesh: {fileID: 4300014, guid: 811ddaa7a03b0d14ab59966cb39fa65f, type: 3}
--- !u!1001 &1921117269
Prefab:
  m_ObjectHideFlags: 0
  serializedVersion: 2
  m_Modification:
    m_TransformParent: {fileID: 0}
    m_Modifications:
    - target: {fileID: 400000, guid: 811ddaa7a03b0d14ab59966cb39fa65f, type: 3}
      propertyPath: m_LocalPosition.x
      value: -3.01261616
      objectReference: {fileID: 0}
    - target: {fileID: 400000, guid: 811ddaa7a03b0d14ab59966cb39fa65f, type: 3}
      propertyPath: m_LocalPosition.y
      value: .077126503
      objectReference: {fileID: 0}
    - target: {fileID: 400000, guid: 811ddaa7a03b0d14ab59966cb39fa65f, type: 3}
      propertyPath: m_LocalPosition.z
      value: 6.09603596
      objectReference: {fileID: 0}
    - target: {fileID: 400000, guid: 811ddaa7a03b0d14ab59966cb39fa65f, type: 3}
      propertyPath: m_LocalRotation.x
      value: 0
      objectReference: {fileID: 0}
    - target: {fileID: 400000, guid: 811ddaa7a03b0d14ab59966cb39fa65f, type: 3}
      propertyPath: m_LocalRotation.y
      value: .5
      objectReference: {fileID: 0}
    - target: {fileID: 400000, guid: 811ddaa7a03b0d14ab59966cb39fa65f, type: 3}
      propertyPath: m_LocalRotation.z
      value: 0
      objectReference: {fileID: 0}
    - target: {fileID: 400000, guid: 811ddaa7a03b0d14ab59966cb39fa65f, type: 3}
      propertyPath: m_LocalRotation.w
      value: .866025388
      objectReference: {fileID: 0}
    m_RemovedComponents: []
  m_ParentPrefab: {fileID: 100100000, guid: 811ddaa7a03b0d14ab59966cb39fa65f, type: 3}
  m_RootGameObject: {fileID: 488631966}
  m_IsPrefabParent: 0
--- !u!1 &2097676035
GameObject:
  m_ObjectHideFlags: 0
  m_PrefabParentObject: {fileID: 0}
  m_PrefabInternal: {fileID: 0}
  serializedVersion: 5
  m_Component:
  - component: {fileID: 2097676036}
  - component: {fileID: 2097676037}
  m_Layer: 0
  m_Name: Directional light
  m_TagString: Untagged
  m_Icon: {fileID: 0}
  m_NavMeshLayer: 0
  m_StaticEditorFlags: 0
  m_IsActive: 1
--- !u!4 &2097676036
Transform:
  m_ObjectHideFlags: 0
  m_PrefabParentObject: {fileID: 0}
  m_PrefabInternal: {fileID: 0}
  m_GameObject: {fileID: 2097676035}
  m_LocalRotation: {x: 0.40821794, y: -0.23456973, z: 0.10938166, w: 0.8754261}
  m_LocalPosition: {x: -1.0307465, y: 9.580431, z: -10.564022}
  m_LocalScale: {x: 1, y: 1, z: 1}
  m_Children: []
  m_Father: {fileID: 0}
  m_RootOrder: 1
  m_LocalEulerAnglesHint: {x: 0, y: 0, z: 0}
--- !u!108 &2097676037
Light:
  m_ObjectHideFlags: 0
  m_PrefabParentObject: {fileID: 0}
  m_PrefabInternal: {fileID: 0}
  m_GameObject: {fileID: 2097676035}
  m_Enabled: 1
  serializedVersion: 8
  m_Type: 1
  m_Color: {r: 1, g: 1, b: 1, a: 1}
  m_Intensity: 1
  m_Range: 10
  m_SpotAngle: 30
  m_CookieSize: 10
  m_Shadows:
    m_Type: 1
    m_Resolution: -1
    m_CustomResolution: -1
    m_Strength: 1
    m_Bias: 0.05
    m_NormalBias: 0.4
    m_NearPlane: 0.2
  m_Cookie: {fileID: 0}
  m_DrawHalo: 0
  m_Flare: {fileID: 0}
  m_RenderMode: 0
  m_CullingMask:
    serializedVersion: 2
    m_Bits: 4294967295
  m_Lightmapping: 1
  m_AreaSize: {x: 1, y: 1}
  m_BounceIntensity: 1
  m_ColorTemperature: 6570
  m_UseColorTemperature: 0
  m_ShadowRadius: 0
  m_ShadowAngle: 0
--- !u!1 &2123016834
GameObject:
  m_ObjectHideFlags: 0
  m_PrefabParentObject: {fileID: 100020, guid: 811ddaa7a03b0d14ab59966cb39fa65f, type: 3}
  m_PrefabInternal: {fileID: 1921117269}
  serializedVersion: 5
  m_Component:
  - component: {fileID: 2123016835}
  - component: {fileID: 2123016837}
  - component: {fileID: 2123016836}
  m_Layer: 0
  m_Name: Object002
  m_TagString: Untagged
  m_Icon: {fileID: 0}
  m_NavMeshLayer: 0
  m_StaticEditorFlags: 0
  m_IsActive: 1
--- !u!4 &2123016835
Transform:
  m_ObjectHideFlags: 0
  m_PrefabParentObject: {fileID: 400020, guid: 811ddaa7a03b0d14ab59966cb39fa65f, type: 3}
  m_PrefabInternal: {fileID: 1921117269}
  m_GameObject: {fileID: 2123016834}
  m_LocalRotation: {x: -0.7071068, y: -9.306839e-16, z: -9.306839e-16, w: 0.7071068}
  m_LocalPosition: {x: 1.3576951, y: 1.2551882, z: 1.5729235}
  m_LocalScale: {x: 0.99999994, y: 0.73173887, z: 0.99999994}
  m_Children: []
  m_Father: {fileID: 488631967}
  m_RootOrder: 9
  m_LocalEulerAnglesHint: {x: 0, y: 0, z: 0}
--- !u!23 &2123016836
MeshRenderer:
  m_ObjectHideFlags: 0
  m_PrefabParentObject: {fileID: 2300018, guid: 811ddaa7a03b0d14ab59966cb39fa65f,
    type: 3}
  m_PrefabInternal: {fileID: 1921117269}
  m_GameObject: {fileID: 2123016834}
  m_Enabled: 1
  m_CastShadows: 1
  m_ReceiveShadows: 1
  m_DynamicOccludee: 1
  m_MotionVectors: 1
  m_LightProbeUsage: 1
  m_ReflectionProbeUsage: 1
  m_Materials:
  - {fileID: 2100000, guid: bc2a6eafa0962894680dd753797c211d, type: 2}
  m_StaticBatchInfo:
    firstSubMesh: 0
    subMeshCount: 0
  m_StaticBatchRoot: {fileID: 0}
  m_ProbeAnchor: {fileID: 0}
  m_LightProbeVolumeOverride: {fileID: 0}
  m_ScaleInLightmap: 1
  m_PreserveUVs: 0
  m_IgnoreNormalsForChartDetection: 0
  m_ImportantGI: 0
  m_StitchLightmapSeams: 0
  m_SelectedEditorRenderState: 3
  m_MinimumChartSize: 4
  m_AutoUVMaxDistance: 0.5
  m_AutoUVMaxAngle: 89
  m_LightmapParameters: {fileID: 0}
  m_SortingLayerID: 0
  m_SortingLayer: 0
  m_SortingOrder: 0
--- !u!33 &2123016837
MeshFilter:
  m_ObjectHideFlags: 0
  m_PrefabParentObject: {fileID: 3300018, guid: 811ddaa7a03b0d14ab59966cb39fa65f,
    type: 3}
  m_PrefabInternal: {fileID: 1921117269}
  m_GameObject: {fileID: 2123016834}
  m_Mesh: {fileID: 4300018, guid: 811ddaa7a03b0d14ab59966cb39fa65f, type: 3}
