%YAML 1.1
%TAG !u! tag:unity3d.com,2011:
--- !u!1 &156960
GameObject:
  m_ObjectHideFlags: 0
  m_PrefabParentObject: {fileID: 0}
  m_PrefabInternal: {fileID: 100100000}
  serializedVersion: 5
  m_Component:
  - component: {fileID: 456960}
  m_Layer: 0
  m_Name: ShootSpot
  m_TagString: Untagged
  m_Icon: {fileID: 0}
  m_NavMeshLayer: 0
  m_StaticEditorFlags: 0
  m_IsActive: 1
--- !u!1 &156962
GameObject:
  m_ObjectHideFlags: 0
  m_PrefabParentObject: {fileID: 0}
  m_PrefabInternal: {fileID: 100100000}
  serializedVersion: 5
  m_Component:
  - component: {fileID: 456962}
  m_Layer: 0
  m_Name: Shell_Spit_Spot
  m_TagString: Untagged
  m_Icon: {fileID: 0}
  m_NavMeshLayer: 0
  m_StaticEditorFlags: 0
  m_IsActive: 1
--- !u!1 &156964
GameObject:
  m_ObjectHideFlags: 0
  m_PrefabParentObject: {fileID: 0}
  m_PrefabInternal: {fileID: 100100000}
  serializedVersion: 5
  m_Component:
  - component: {fileID: 456964}
  m_Layer: 0
  m_Name: Gun_FX_Spot
  m_TagString: Untagged
  m_Icon: {fileID: 0}
  m_NavMeshLayer: 0
  m_StaticEditorFlags: 0
  m_IsActive: 1
--- !u!1 &156966
GameObject:
  m_ObjectHideFlags: 0
  m_PrefabParentObject: {fileID: 0}
  m_PrefabInternal: {fileID: 100100000}
  serializedVersion: 5
  m_Component:
  - component: {fileID: 456966}
  - component: {fileID: 3356968}
  - component: {fileID: 2356968}
  - component: {fileID: 9556968}
  m_Layer: 0
  m_Name: M79_grenade_launcher_model
  m_TagString: Untagged
  m_Icon: {fileID: 0}
  m_NavMeshLayer: 0
  m_StaticEditorFlags: 0
  m_IsActive: 1
--- !u!1 &156968
GameObject:
  m_ObjectHideFlags: 0
  m_PrefabParentObject: {fileID: 0}
  m_PrefabInternal: {fileID: 100100000}
  serializedVersion: 5
  m_Component:
  - component: {fileID: 456968}
  - component: {fileID: 11456968}
  - component: {fileID: 8256968}
  m_Layer: 0
  m_Name: M79 Grenade Launcher
  m_TagString: Untagged
  m_Icon: {fileID: 0}
  m_NavMeshLayer: 0
  m_StaticEditorFlags: 0
  m_IsActive: 1
--- !u!4 &456960
Transform:
  m_ObjectHideFlags: 1
  m_PrefabParentObject: {fileID: 0}
  m_PrefabInternal: {fileID: 100100000}
  m_GameObject: {fileID: 156960}
  m_LocalRotation: {x: 0, y: 0, z: 0, w: 1}
  m_LocalPosition: {x: -0.25930497, y: 0.23983812, z: -0.07281321}
  m_LocalScale: {x: 1, y: 1, z: 1}
  m_Children: []
  m_Father: {fileID: 456968}
  m_RootOrder: 2
  m_LocalEulerAnglesHint: {x: 0, y: 0, z: 0}
--- !u!4 &456962
Transform:
  m_ObjectHideFlags: 1
  m_PrefabParentObject: {fileID: 0}
  m_PrefabInternal: {fileID: 100100000}
  m_GameObject: {fileID: 156962}
  m_LocalRotation: {x: 0, y: 0, z: 0, w: 1}
  m_LocalPosition: {x: 0.092068, y: 0.066742, z: 0.17481}
  m_LocalScale: {x: 1, y: 1, z: 1}
  m_Children: []
  m_Father: {fileID: 456968}
  m_RootOrder: 1
  m_LocalEulerAnglesHint: {x: 0, y: 0, z: 0}
--- !u!4 &456964
Transform:
  m_ObjectHideFlags: 1
  m_PrefabParentObject: {fileID: 0}
  m_PrefabInternal: {fileID: 100100000}
  m_GameObject: {fileID: 156964}
  m_LocalRotation: {x: 0, y: 0, z: 0, w: 1}
  m_LocalPosition: {x: 0, y: 0.075988, z: 0.65133}
  m_LocalScale: {x: 1, y: 1, z: 1}
  m_Children: []
  m_Father: {fileID: 456968}
  m_RootOrder: 0
  m_LocalEulerAnglesHint: {x: 0, y: 0, z: 0}
--- !u!4 &456966
Transform:
  m_ObjectHideFlags: 1
  m_PrefabParentObject: {fileID: 0}
  m_PrefabInternal: {fileID: 100100000}
  m_GameObject: {fileID: 156966}
  m_LocalRotation: {x: 0, y: 0, z: 0, w: 1}
  m_LocalPosition: {x: -0.0018581152, y: 0.0695554, z: 0.12650937}
  m_LocalScale: {x: 1, y: 1, z: 1}
  m_Children: []
  m_Father: {fileID: 456968}
  m_RootOrder: 3
  m_LocalEulerAnglesHint: {x: 0, y: 0, z: 0}
--- !u!4 &456968
Transform:
  m_ObjectHideFlags: 1
  m_PrefabParentObject: {fileID: 0}
  m_PrefabInternal: {fileID: 100100000}
  m_GameObject: {fileID: 156968}
  m_LocalRotation: {x: 0, y: 0, z: 0, w: 1}
  m_LocalPosition: {x: 0.23337401, y: 1.296881, z: 0.5559}
  m_LocalScale: {x: 0.9, y: 0.9, z: 0.9}
  m_Children:
  - {fileID: 456964}
  - {fileID: 456962}
  - {fileID: 456960}
  - {fileID: 456966}
  m_Father: {fileID: 0}
  m_RootOrder: 0
  m_LocalEulerAnglesHint: {x: 0, y: 0, z: 0}
--- !u!23 &2356968
MeshRenderer:
  m_ObjectHideFlags: 1
  m_PrefabParentObject: {fileID: 0}
  m_PrefabInternal: {fileID: 100100000}
  m_GameObject: {fileID: 156966}
  m_Enabled: 1
  m_CastShadows: 1
  m_ReceiveShadows: 1
  m_DynamicOccludee: 1
  m_MotionVectors: 1
  m_LightProbeUsage: 0
  m_ReflectionProbeUsage: 1
  m_Materials:
  - {fileID: 2100000, guid: e085479f7e17a7e4685167bbbe7a514a, type: 2}
  m_StaticBatchInfo:
    firstSubMesh: 0
    subMeshCount: 0
  m_StaticBatchRoot: {fileID: 0}
  m_ProbeAnchor: {fileID: 0}
  m_LightProbeVolumeOverride: {fileID: 0}
  m_ScaleInLightmap: 1
  m_PreserveUVs: 0
  m_IgnoreNormalsForChartDetection: 0
  m_ImportantGI: 0
  m_StitchLightmapSeams: 0
  m_SelectedEditorRenderState: 3
  m_MinimumChartSize: 4
  m_AutoUVMaxDistance: 0.5
  m_AutoUVMaxAngle: 89
  m_LightmapParameters: {fileID: 0}
  m_SortingLayerID: 0
  m_SortingLayer: 0
  m_SortingOrder: 0
--- !u!33 &3356968
MeshFilter:
  m_ObjectHideFlags: 1
  m_PrefabParentObject: {fileID: 0}
  m_PrefabInternal: {fileID: 100100000}
  m_GameObject: {fileID: 156966}
  m_Mesh: {fileID: 4300000, guid: 12ebcf8b5352e3a418536f7237626f64, type: 3}
--- !u!82 &8256968
AudioSource:
  m_ObjectHideFlags: 1
  m_PrefabParentObject: {fileID: 0}
  m_PrefabInternal: {fileID: 100100000}
  m_GameObject: {fileID: 156968}
  m_Enabled: 1
  serializedVersion: 4
  OutputAudioMixerGroup: {fileID: 0}
  m_audioClip: {fileID: 0}
  m_PlayOnAwake: 0
  m_Volume: 1
  m_Pitch: 1
  Loop: 0
  Mute: 0
  Spatialize: 0
  SpatializePostEffects: 0
  Priority: 128
  DopplerLevel: 1
  MinDistance: 1
  MaxDistance: 500
  Pan2D: 0
  rolloffMode: 0
  BypassEffects: 0
  BypassListenerEffects: 0
  BypassReverbZones: 0
  rolloffCustomCurve:
    serializedVersion: 2
    m_Curve:
    - serializedVersion: 2
      time: 0
      value: 1
      inSlope: 0
      outSlope: 0
      tangentMode: 0
    - serializedVersion: 2
      time: 1
      value: 0
      inSlope: 0
      outSlope: 0
      tangentMode: 0
    m_PreInfinity: 2
    m_PostInfinity: 2
    m_RotationOrder: 4
  panLevelCustomCurve:
    serializedVersion: 2
    m_Curve:
    - serializedVersion: 2
      time: 0
      value: 1
      inSlope: 0
      outSlope: 0
      tangentMode: 0
    m_PreInfinity: 2
    m_PostInfinity: 2
    m_RotationOrder: 0
  spreadCustomCurve:
    serializedVersion: 2
    m_Curve:
    - serializedVersion: 2
      time: 0
      value: 0
      inSlope: 0
      outSlope: 0
      tangentMode: 0
    m_PreInfinity: 2
    m_PostInfinity: 2
    m_RotationOrder: 0
  reverbZoneMixCustomCurve:
    serializedVersion: 2
    m_Curve:
    - serializedVersion: 2
      time: 0
      value: 1
      inSlope: 0
      outSlope: 0
      tangentMode: 0
    m_PreInfinity: 2
    m_PostInfinity: 2
    m_RotationOrder: 0
--- !u!95 &9556968
Animator:
  serializedVersion: 3
  m_ObjectHideFlags: 1
  m_PrefabParentObject: {fileID: 0}
  m_PrefabInternal: {fileID: 100100000}
  m_GameObject: {fileID: 156966}
  m_Enabled: 1
  m_Avatar: {fileID: 9000000, guid: 12ebcf8b5352e3a418536f7237626f64, type: 3}
  m_Controller: {fileID: 0}
  m_CullingMode: 0
  m_UpdateMode: 0
  m_ApplyRootMotion: 1
  m_LinearVelocityBlending: 0
  m_WarningMessage: 
  m_HasTransformHierarchy: 1
  m_AllowConstantClipSamplingOptimization: 1
--- !u!114 &11456968
MonoBehaviour:
  m_ObjectHideFlags: 1
  m_PrefabParentObject: {fileID: 0}
  m_PrefabInternal: {fileID: 100100000}
  m_GameObject: {fileID: 156968}
  m_Enabled: 1
  m_EditorHideFlags: 0
  m_Script: {fileID: 11500000, guid: 7cfdbd9104e186642943082e0cd11378, type: 3}
  m_Name: 
  m_EditorClassIdentifier: 
  type: 0
  shooterAIEnabled: 0
  bloodyMessEnabled: 0
  weaponType: 0
  auto: 1
  playerWeapon: 1
  weaponModel: {fileID: 156966}
  raycastStartSpot: {fileID: 456960}
  delayBeforeFire: 0
  warmup: 1
  maxWarmup: 1.5
  multiplyForce: 1
  multiplyPower: 0
  powerMultiplier: 1
  initialForceMultiplier: 3
  allowCancel: 0
  projectile: {fileID: 100008, guid: a4b44abdbd241fa4faf6f507cff9873c, type: 2}
  projectileSpawnSpot: {fileID: 456964}
  reflect: 1
  reflectionMaterial: {fileID: 0}
  maxReflections: 5
  beamTypeName: laser_beam
  maxBeamHeat: 1
  infiniteBeam: 0
  beamMaterial: {fileID: 0}
  beamColor: {r: 1, g: 0, b: 0, a: 1}
  startBeamWidth: 0.5
  endBeamWidth: 1
  power: 70
  forceMultiplier: 10
  beamPower: 1
  range: 9999
  rateOfFire: 3
  infiniteAmmo: 0
  ammoCapacity: 6
  shotPerRound: 1
  reloadTime: 2
  showCurrentAmmo: 1
  reloadAutomatically: 1
  accuracy: 90
  accuracyDropPerShot: 8
  accuracyRecoverRate: 0.008
  burstRate: 3
  burstPause: 0
  recoil: 1
  recoilKickBackMin: 0.4
  recoilKickBackMax: 0.6
  recoilRotationMin: 3
  recoilRotationMax: 4
  recoilRecoveryRate: 5.5
  spitShells: 0
  shell: {fileID: 100000, guid: e9d7edc514722fa4fbde452d3e33c0ec, type: 2}
  shellSpitForce: 0.18
  shellForceRandom: 2
  shellSpitTorqueX: 0
  shellSpitTorqueY: 5
  shellTorqueRandom: 1
  shellSpitPosition: {fileID: 456962}
  makeMuzzleEffects: 0
  muzzleEffects:
  - {fileID: 100002, guid: e840492206edf364baccc15150e2cc63, type: 2}
  muzzleEffectsPosition: {fileID: 456964}
  makeHitEffects: 0
  hitEffects:
  - {fileID: 100002, guid: 0c631565793959f47a2464ec266aca7c, type: 2}
  makeBulletHoles: 0
  bhSystem: 0
  bulletHolePoolNames: []
  defaultBulletHolePoolNames: []
  bulletHoleGroups:
  - tag: Everything
    material: {fileID: 0}
    physicMaterial: {fileID: 0}
    bulletHole: {fileID: 0}
  defaultBulletHoles: []
  bulletHoleExceptions: []
  showCrosshair: 0
  crosshairTexture: {fileID: 2800000, guid: b4c5e19a5662ed244b54f15320c9fb31, type: 3}
  crosshairLength: 18
  crosshairWidth: 8
  startingCrosshairSize: 20
  fireSound: {fileID: 8300000, guid: e5c3dd3dda2747c498244d938aff0d00, type: 3}
  reloadSound: {fileID: 8300000, guid: a236ed6ed1165ca44908f0cfe8c7ed65, type: 3}
  dryFireSound: {fileID: 0}
--- !u!1001 &100100000
Prefab:
  m_ObjectHideFlags: 1
  serializedVersion: 2
  m_Modification:
    m_TransformParent: {fileID: 0}
    m_Modifications:
    - target: {fileID: 0}
      propertyPath: panLevelCustomCurve.m_RotationOrder
      value: 0
      objectReference: {fileID: 0}
    - target: {fileID: 0}
      propertyPath: spreadCustomCurve.m_RotationOrder
      value: 0
      objectReference: {fileID: 0}
    - target: {fileID: 0}
      propertyPath: reverbZoneMixCustomCurve.m_RotationOrder
      value: 0
      objectReference: {fileID: 0}
    m_RemovedComponents: []
  m_ParentPrefab: {fileID: 0}
  m_RootGameObject: {fileID: 156968}
  m_IsPrefabParent: 1
