[01:51:17] INFO: Umbra 3 Optimizer version 3.3.16  (build: 6af63c9c4b1bd614a60aa456007153081e166aae)
[01:51:17] INFO: T: 20 O: 5 H: 0.25 B: 100
[01:51:17] INFO: Tile grid 32x4x16 (at -16,-4,-8) created for scene: 32 tiles (0 empties not included) in 0.001 seconds
[01:51:17] INFO: Using 4 threads to compute 32 tiles, cache 4096 MB
[01:51:17] INFO: Tile processing complete, computed 32 tiles
[01:51:17] INFO: Strict view volumes: no
[01:51:17] INFO: Filtered 0/1 inside clusters
[01:51:17] INFO: Filtered 0/1 global clusters
[01:51:17] INFO: 62/62 cells reachable after global analysis
[01:51:17] INFO: collapsed leaf tiles 32 => 1
[01:51:17] INFO: Generating LOD tiles using 4 threads
[01:51:17] INFO: Connecting LOD tiles
[01:51:17] INFO: Compressing lists
[01:51:17] INFO: Average index range size: 1.67
[01:51:17] INFO: object list: 4 B, cluster list: 0 B
[01:51:17] INFO: created tome with 1 tiles, 3 targets and 0 gates
[01:51:17] INFO: Checking cache...
